--------------------------------
tovid id
Identify video files
Version 0.33
http://tovid.wikia.com
--------------------------------
Analyzing file: 'video para prueba de gastro.mov'...
=========================================================
               File: video para prueba de gastro.mov
              Width: 640 pixels
             Height: 480 pixels
       Aspect ratio: 1.33:1
             Frames: 180
           Duration: 00:00:06 hours/mins/secs
          Framerate: 29.970 frames per second
       Video format: H264
      Video bitrate: 528112 bits per second
---------------------------
Audio track 1 (Stream 0.1, AID 0):
---------------------------
              Codec: pcm_s16be
            Bitrate: 1536000 bits per second
      Sampling rate: 48000 Hz
=========================================================
Audio is compliant with the following formats:
  Not compliant with (S)VCD or DVD
Video is compliant with the following formats:
  Not compliant with (S)VCD or DVD
This video does not seem to be compliant with (S)VCD or DVD
standards. If you burn it to a video disc, it may not work.
=========================================================
Read options from /home/antsanch/.tovid/tovid.ini:

